\relax 
\@writefile{toc}{\contentsline {section}{\numberline {0.1}Complexit\IeC {\'e} du probl\IeC {\`e}me}{1}\protected@file@percent }
\@writefile{toc}{\contentsline {paragraph}{}{1}\protected@file@percent }
\@writefile{toc}{\contentsline {paragraph}{}{1}\protected@file@percent }
